DeviceTag: Xsens DOT1,FirmwareVersion: 2.2.1,AppVersion: 2022.2.0,SyncStatus: Unknown (Synced/Un-synced),OutputRate: 60,FilterProfile: Unknown,Measurement Mode: Custom Modes - Custom Mode 4,StartTime: 2022-12-08 11:26:15.620,© Movella Technologies B.V. 2005-2022
SampleTimeFine,dq_W,dq_X,dq_Y,dq_Z,dv[1],dv[2],dv[3],Acc_X,Acc_Y,Acc_Z,Gyr_X,Gyr_Y,Gyr_Z,Mag_X,Mag_Y,Mag_Z,Quat_W,Quat_X,Quat_Y,Quat_Z,Status
13218429,1.0000,0.0003,-0.0001,-0.0000,-0.0013,-0.0016,0.1613,-0.0764,-0.0923,9.6756,0.0344,-0.0098,-0.0026,-0.2954,-0.1841,-1.4448,0.4615,0.0017,0.0057,-0.8871,0
13218596,1.0000,0.0003,-0.0001,-0.0000,-0.0014,-0.0017,0.1614,-0.0858,-0.1005,9.6830,0.0336,-0.0093,-0.0018,-0.2993,-0.1855,-1.4443,0.4616,0.0017,0.0055,-0.8871,0
13218762,1.0000,0.0003,-0.0001,-0.0000,-0.0012,-0.0016,0.1613,-0.0732,-0.0942,9.6757,0.0343,-0.0107,-0.0005,-0.2974,-0.1836,-1.4443,0.4617,0.0017,0.0053,-0.8870,0
13218929,1.0000,0.0003,-0.0001,-0.0000,-0.0014,-0.0017,0.1614,-0.0825,-0.0969,9.6850,0.0338,-0.0103,-0.0014,-0.2930,-0.1851,-1.4453,0.4619,0.0017,0.0051,-0.8869,0
13219096,1.0000,0.0003,-0.0001,-0.0000,-0.0014,-0.0017,0.1613,-0.0836,-0.0997,9.6796,0.0336,-0.0100,-0.0007,-0.2949,-0.1865,-1.4448,0.4618,0.0017,0.0049,-0.8870,0
13219262,1.0000,0.0003,-0.0001,-0.0000,-0.0013,-0.0017,0.1615,-0.0746,-0.0997,9.6907,0.0342,-0.0102,-0.0004,-0.2988,-0.1836,-1.4448,0.4618,0.0017,0.0048,-0.8870,0
13219429,1.0000,0.0003,-0.0001,0.0000,-0.0016,-0.0017,0.1614,-0.0932,-0.0970,9.6862,0.0332,-0.0099,0.0002,-0.2983,-0.1865,-1.4443,0.4620,0.0018,0.0046,-0.8869,0
13219596,1.0000,0.0003,-0.0001,-0.0000,-0.0015,-0.0018,0.1612,-0.0870,-0.1045,9.6726,0.0343,-0.0102,-0.0023,-0.2954,-0.1846,-1.4443,0.4621,0.0018,0.0044,-0.8868,0
13219762,1.0000,0.0003,-0.0001,-0.0000,-0.0014,-0.0017,0.1614,-0.0835,-0.1015,9.6819,0.0355,-0.0098,-0.0013,-0.2959,-0.1865,-1.4443,0.4622,0.0018,0.0042,-0.8868,0
13219929,1.0000,0.0003,-0.0001,-0.0000,-0.0013,-0.0015,0.1614,-0.0755,-0.0868,9.6864,0.0330,-0.0102,-0.0008,-0.2959,-0.1855,-1.4438,0.4622,0.0019,0.0041,-0.8868,0
13220096,1.0000,0.0003,-0.0001,-0.0000,-0.0014,-0.0016,0.1611,-0.0830,-0.0945,9.6665,0.0323,-0.0111,-0.0009,-0.2959,-0.1836,-1.4448,0.4623,0.0019,0.0039,-0.8867,0
13220262,1.0000,0.0003,-0.0001,0.0000,-0.0014,-0.0017,0.1612,-0.0850,-0.1019,9.6721,0.0348,-0.0086,0.0000,-0.2979,-0.1841,-1.4458,0.4624,0.0019,0.0037,-0.8866,0
13220429,1.0000,0.0003,-0.0001,-0.0000,-0.0015,-0.0020,0.1612,-0.0872,-0.1147,9.6733,0.0333,-0.0100,-0.0014,-0.2964,-0.1841,-1.4473,0.4626,0.0020,0.0035,-0.8866,0
13220596,1.0000,0.0003,-0.0001,-0.0000,-0.0015,-0.0016,0.1618,-0.0909,-0.0935,9.7089,0.0326,-0.0104,-0.0014,-0.2935,-0.1846,-1.4429,0.4627,0.0020,0.0033,-0.8865,0
13220762,1.0000,0.0003,-0.0001,-0.0000,-0.0012,-0.0019,0.1614,-0.0729,-0.1121,9.6826,0.0345,-0.0101,-0.0025,-0.2959,-0.1841,-1.4468,0.4628,0.0021,0.0031,-0.8864,0
13220929,1.0000,0.0003,-0.0001,-0.0000,-0.0013,-0.0016,0.1616,-0.0785,-0.0955,9.6954,0.0338,-0.0099,-0.0004,-0.2949,-0.1855,-1.4482,0.4629,0.0021,0.0029,-0.8864,0
13221096,1.0000,0.0003,-0.0001,-0.0000,-0.0015,-0.0016,0.1615,-0.0916,-0.0938,9.6874,0.0338,-0.0097,-0.0020,-0.2979,-0.1846,-1.4434,0.4630,0.0021,0.0027,-0.8863,0
13221263,1.0000,0.0003,-0.0001,-0.0000,-0.0014,-0.0019,0.1618,-0.0818,-0.1110,9.7069,0.0343,-0.0085,-0.0008,-0.2974,-0.1860,-1.4448,0.4632,0.0022,0.0026,-0.8862,0
13221429,1.0000,0.0003,-0.0001,-0.0000,-0.0016,-0.0018,0.1613,-0.0959,-0.1049,9.6805,0.0334,-0.0109,-0.0005,-0.2949,-0.1855,-1.4448,0.4633,0.0022,0.0024,-0.8862,0
13221596,1.0000,0.0003,-0.0001,-0.0000,-0.0013,-0.0018,0.1615,-0.0787,-0.1030,9.6878,0.0339,-0.0098,-0.0008,-0.2974,-0.1851,-1.4463,0.4634,0.0023,0.0022,-0.8861,0
13221763,1.0000,0.0003,-0.0001,0.0000,-0.0013,-0.0016,0.1615,-0.0743,-0.0939,9.6879,0.0345,-0.0108,0.0001,-0.2959,-0.1846,-1.4453,0.4636,0.0023,0.0020,-0.8860,0
13221929,1.0000,0.0003,-0.0001,-0.0000,-0.0011,-0.0017,0.1613,-0.0627,-0.0967,9.6807,0.0340,-0.0081,-0.0004,-0.2949,-0.1870,-1.4414,0.4637,0.0023,0.0018,-0.8860,0
13222096,1.0000,0.0003,-0.0001,-0.0000,-0.0013,-0.0018,0.1614,-0.0794,-0.1077,9.6847,0.0330,-0.0110,-0.0001,-0.2964,-0.1860,-1.4443,0.4638,0.0024,0.0016,-0.8860,0
13222263,1.0000,0.0003,-0.0001,-0.0000,-0.0013,-0.0017,0.1617,-0.0795,-0.0983,9.7030,0.0340,-0.0099,-0.0013,-0.2954,-0.1860,-1.4438,0.4639,0.0024,0.0014,-0.8859,0
13222429,1.0000,0.0003,-0.0001,-0.0000,-0.0011,-0.0018,0.1613,-0.0679,-0.1062,9.6758,0.0330,-0.0103,-0.0004,-0.2959,-0.1855,-1.4424,0.4640,0.0024,0.0012,-0.8858,0
13222596,1.0000,0.0003,-0.0001,-0.0000,-0.0017,-0.0014,0.1614,-0.1020,-0.0842,9.6813,0.0337,-0.0100,-0.0007,-0.2954,-0.1846,-1.4468,0.4641,0.0025,0.0010,-0.8858,0
13222763,1.0000,0.0003,-0.0001,-0.0000,-0.0015,-0.0015,0.1613,-0.0884,-0.0889,9.6759,0.0338,-0.0105,-0.0013,-0.2954,-0.1846,-1.4468,0.4644,0.0025,0.0008,-0.8856,0
13222929,1.0000,0.0003,-0.0001,-0.0000,-0.0014,-0.0016,0.1614,-0.0841,-0.0962,9.6835,0.0337,-0.0087,-0.0003,-0.2959,-0.1860,-1.4453,0.4645,0.0026,0.0006,-0.8856,0
13223096,1.0000,0.0003,-0.0001,-0.0000,-0.0012,-0.0018,0.1613,-0.0708,-0.1028,9.6764,0.0333,-0.0094,-0.0018,-0.2954,-0.1836,-1.4424,0.4646,0.0026,0.0004,-0.8855,0
13223263,1.0000,0.0003,-0.0001,-0.0000,-0.0012,-0.0017,0.1616,-0.0736,-0.0979,9.6967,0.0347,-0.0109,-0.0008,-0.2988,-0.1846,-1.4463,0.4648,0.0026,0.0002,-0.8854,0
13223429,1.0000,0.0003,-0.0001,-0.0000,-0.0012,-0.0016,0.1611,-0.0703,-0.0911,9.6665,0.0338,-0.0099,-0.0015,-0.2979,-0.1855,-1.4438,0.4649,0.0027,-0.0000,-0.8853,0
13223596,1.0000,0.0003,-0.0001,-0.0000,-0.0011,-0.0017,0.1614,-0.0648,-0.0998,9.6870,0.0342,-0.0105,-0.0021,-0.2964,-0.1870,-1.4448,0.4651,0.0027,-0.0002,-0.8853,0
13223763,1.0000,0.0003,-0.0001,-0.0000,-0.0014,-0.0017,0.1614,-0.0824,-0.0997,9.6854,0.0355,-0.0098,-0.0019,-0.2944,-0.1851,-1.4448,0.4652,0.0028,-0.0004,-0.8852,0
13223929,1.0000,0.0003,-0.0001,-0.0000,-0.0012,-0.0018,0.1614,-0.0698,-0.1050,9.6857,0.0354,-0.0102,-0.0019,-0.2949,-0.1855,-1.4429,0.4653,0.0028,-0.0006,-0.8851,0
13224096,1.0000,0.0003,-0.0001,-0.0000,-0.0013,-0.0017,0.1614,-0.0774,-0.1022,9.6849,0.0341,-0.0095,-0.0015,-0.2964,-0.1851,-1.4429,0.4654,0.0028,-0.0008,-0.8851,0
13224263,1.0000,0.0003,-0.0001,-0.0000,-0.0014,-0.0018,0.1615,-0.0822,-0.1031,9.6925,0.0318,-0.0091,-0.0006,-0.2979,-0.1836,-1.4443,0.4656,0.0029,-0.0010,-0.8850,0
13224429,1.0000,0.0003,-0.0001,-0.0000,-0.0013,-0.0016,0.1613,-0.0771,-0.0910,9.6759,0.0324,-0.0101,-0.0021,-0.2959,-0.1846,-1.4443,0.4657,0.0029,-0.0012,-0.8849,0
13224596,1.0000,0.0003,-0.0001,-0.0000,-0.0014,-0.0017,0.1612,-0.0828,-0.1012,9.6736,0.0340,-0.0103,-0.0008,-0.2944,-0.1841,-1.4448,0.4658,0.0030,-0.0014,-0.8849,0
13224763,1.0000,0.0003,-0.0001,-0.0000,-0.0012,-0.0017,0.1616,-0.0728,-0.0978,9.6984,0.0350,-0.0100,-0.0016,-0.2944,-0.1855,-1.4438,0.4660,0.0030,-0.0016,-0.8848,0
13224929,1.0000,0.0003,-0.0001,-0.0000,-0.0014,-0.0018,0.1613,-0.0823,-0.1047,9.6760,0.0340,-0.0103,-0.0007,-0.2935,-0.1836,-1.4438,0.4661,0.0030,-0.0018,-0.8847,0
13225096,1.0000,0.0003,-0.0001,-0.0000,-0.0014,-0.0017,0.1614,-0.0805,-0.0981,9.6842,0.0346,-0.0105,-0.0005,-0.2954,-0.1860,-1.4448,0.4662,0.0031,-0.0020,-0.8846,0
13225263,1.0000,0.0003,-0.0001,-0.0000,-0.0013,-0.0016,0.1616,-0.0797,-0.0960,9.6954,0.0337,-0.0108,-0.0027,-0.2949,-0.1846,-1.4458,0.4664,0.0031,-0.0023,-0.8846,0
13225429,1.0000,0.0003,-0.0001,-0.0000,-0.0015,-0.0016,0.1614,-0.0872,-0.0954,9.6838,0.0339,-0.0097,-0.0023,-0.2935,-0.1851,-1.4453,0.4665,0.0031,-0.0025,-0.8845,0
13225596,1.0000,0.0003,-0.0001,-0.0000,-0.0014,-0.0018,0.1615,-0.0857,-0.1044,9.6915,0.0340,-0.0089,-0.0003,-0.2944,-0.1851,-1.4458,0.4666,0.0032,-0.0026,-0.8844,0
13225763,1.0000,0.0003,-0.0001,-0.0000,-0.0013,-0.0016,0.1611,-0.0762,-0.0950,9.6640,0.0347,-0.0089,-0.0007,-0.2954,-0.1851,-1.4458,0.4668,0.0032,-0.0029,-0.8844,0
13225929,1.0000,0.0003,-0.0001,-0.0000,-0.0014,-0.0017,0.1614,-0.0836,-0.1009,9.6827,0.0330,-0.0107,-0.0017,-0.2959,-0.1846,-1.4438,0.4669,0.0033,-0.0030,-0.8843,0
13226096,1.0000,0.0003,-0.0001,-0.0000,-0.0014,-0.0016,0.1615,-0.0827,-0.0934,9.6928,0.0339,-0.0112,-0.0001,-0.2944,-0.1841,-1.4438,0.4670,0.0033,-0.0033,-0.8842,0
13226263,1.0000,0.0003,-0.0001,-0.0000,-0.0015,-0.0016,0.1616,-0.0892,-0.0935,9.6940,0.0326,-0.0099,-0.0009,-0.2959,-0.1831,-1.4468,0.4672,0.0033,-0.0034,-0.8842,0
13226429,1.0000,0.0003,-0.0001,0.0000,-0.0013,-0.0017,0.1618,-0.0765,-0.0987,9.7071,0.0346,-0.0096,0.0001,-0.2974,-0.1846,-1.4453,0.4673,0.0034,-0.0036,-0.8841,0
13226596,1.0000,0.0003,-0.0001,-0.0000,-0.0013,-0.0014,0.1615,-0.0761,-0.0790,9.6894,0.0345,-0.0097,-0.0005,-0.2959,-0.1821,-1.4448,0.4674,0.0034,-0.0038,-0.8840,0
13226763,1.0000,0.0003,-0.0001,-0.0000,-0.0013,-0.0017,0.1613,-0.0783,-0.0977,9.6755,0.0337,-0.0094,-0.0004,-0.2979,-0.1855,-1.4429,0.4676,0.0035,-0.0040,-0.8839,0
13226929,1.0000,0.0003,-0.0001,-0.0000,-0.0015,-0.0017,0.1616,-0.0875,-0.0997,9.6979,0.0351,-0.0101,-0.0006,-0.2959,-0.1851,-1.4443,0.4677,0.0035,-0.0042,-0.8839,0
13227096,1.0000,0.0003,-0.0001,-0.0000,-0.0016,-0.0016,0.1613,-0.0952,-0.0958,9.6762,0.0331,-0.0107,-0.0026,-0.2949,-0.1851,-1.4448,0.4678,0.0035,-0.0044,-0.8838,0
13227263,1.0000,0.0003,-0.0001,-0.0000,-0.0016,-0.0019,0.1618,-0.0969,-0.1089,9.7071,0.0317,-0.0090,-0.0015,-0.2964,-0.1846,-1.4453,0.4679,0.0036,-0.0046,-0.8837,0
13227429,1.0000,0.0003,-0.0001,-0.0000,-0.0013,-0.0016,0.1617,-0.0781,-0.0947,9.7003,0.0330,-0.0101,-0.0021,-0.2959,-0.1855,-1.4443,0.4681,0.0036,-0.0048,-0.8837,0
13227596,1.0000,0.0003,-0.0001,-0.0000,-0.0012,-0.0019,0.1616,-0.0691,-0.1123,9.6946,0.0350,-0.0104,-0.0010,-0.2959,-0.1860,-1.4458,0.4682,0.0037,-0.0050,-0.8836,0
13227763,1.0000,0.0003,-0.0001,-0.0000,-0.0013,-0.0018,0.1612,-0.0760,-0.1028,9.6736,0.0342,-0.0091,-0.0020,-0.2939,-0.1831,-1.4458,0.4683,0.0037,-0.0052,-0.8835,0
13227929,1.0000,0.0003,-0.0001,-0.0000,-0.0011,-0.0018,0.1612,-0.0645,-0.1066,9.6711,0.0337,-0.0086,-0.0007,-0.2959,-0.1841,-1.4434,0.4684,0.0038,-0.0054,-0.8835,0
13228096,1.0000,0.0003,-0.0001,-0.0000,-0.0013,-0.0016,0.1614,-0.0766,-0.0943,9.6812,0.0346,-0.0106,-0.0008,-0.2979,-0.1836,-1.4478,0.4686,0.0038,-0.0056,-0.8834,0
13228263,1.0000,0.0003,-0.0001,-0.0000,-0.0014,-0.0014,0.1615,-0.0813,-0.0822,9.6902,0.0326,-0.0095,-0.0018,-0.2974,-0.1846,-1.4448,0.4687,0.0038,-0.0058,-0.8833,0
13228429,1.0000,0.0003,-0.0001,-0.0000,-0.0016,-0.0016,0.1614,-0.0926,-0.0909,9.6827,0.0331,-0.0100,-0.0015,-0.2944,-0.1860,-1.4458,0.4688,0.0039,-0.0059,-0.8833,0
13228596,1.0000,0.0003,-0.0001,-0.0000,-0.0014,-0.0017,0.1614,-0.0855,-0.0992,9.6859,0.0330,-0.0097,-0.0014,-0.2959,-0.1851,-1.4463,0.4689,0.0039,-0.0061,-0.8832,0
13228763,1.0000,0.0003,-0.0001,-0.0000,-0.0014,-0.0017,0.1616,-0.0838,-0.0979,9.6990,0.0337,-0.0099,-0.0027,-0.2979,-0.1841,-1.4473,0.4690,0.0039,-0.0063,-0.8831,0
13228929,1.0000,0.0003,-0.0001,-0.0000,-0.0015,-0.0016,0.1614,-0.0905,-0.0929,9.6863,0.0347,-0.0104,-0.0014,-0.2974,-0.1855,-1.4434,0.4692,0.0040,-0.0065,-0.8831,0
13229096,1.0000,0.0003,-0.0001,-0.0000,-0.0016,-0.0017,0.1615,-0.0952,-0.1002,9.6897,0.0327,-0.0097,-0.0007,-0.2949,-0.1821,-1.4492,0.4693,0.0040,-0.0067,-0.8830,0
13229263,1.0000,0.0003,-0.0001,-0.0000,-0.0013,-0.0016,0.1612,-0.0755,-0.0955,9.6722,0.0335,-0.0105,-0.0001,-0.2935,-0.1841,-1.4463,0.4694,0.0041,-0.0069,-0.8830,0
13229429,1.0000,0.0003,-0.0001,-0.0000,-0.0012,-0.0020,0.1615,-0.0726,-0.1177,9.6925,0.0341,-0.0100,-0.0007,-0.2964,-0.1851,-1.4458,0.4695,0.0041,-0.0070,-0.8829,0
13229596,1.0000,0.0003,-0.0001,-0.0000,-0.0011,-0.0015,0.1613,-0.0675,-0.0899,9.6752,0.0344,-0.0105,-0.0010,-0.2964,-0.1846,-1.4438,0.4696,0.0041,-0.0072,-0.8828,0
13229763,1.0000,0.0003,-0.0001,-0.0000,-0.0011,-0.0019,0.1616,-0.0629,-0.1092,9.6955,0.0342,-0.0096,-0.0012,-0.2954,-0.1860,-1.4448,0.4697,0.0042,-0.0074,-0.8828,0
13229929,1.0000,0.0003,-0.0001,-0.0000,-0.0011,-0.0016,0.1612,-0.0634,-0.0909,9.6730,0.0334,-0.0101,-0.0009,-0.2979,-0.1836,-1.4463,0.4698,0.0042,-0.0076,-0.8827,0
13230096,1.0000,0.0003,-0.0001,-0.0000,-0.0014,-0.0016,0.1612,-0.0819,-0.0936,9.6737,0.0356,-0.0104,-0.0014,-0.2988,-0.1855,-1.4438,0.4700,0.0043,-0.0078,-0.8826,0
13230263,1.0000,0.0003,-0.0001,-0.0000,-0.0015,-0.0018,0.1612,-0.0922,-0.1027,9.6736,0.0342,-0.0089,-0.0008,-0.2959,-0.1870,-1.4453,0.4701,0.0043,-0.0080,-0.8826,0
13230429,1.0000,0.0003,-0.0001,-0.0000,-0.0014,-0.0013,0.1614,-0.0842,-0.0774,9.6838,0.0346,-0.0096,-0.0013,-0.2974,-0.1846,-1.4448,0.4702,0.0043,-0.0081,-0.8825,0
13230596,1.0000,0.0003,-0.0001,-0.0000,-0.0014,-0.0017,0.1613,-0.0835,-0.0996,9.6795,0.0338,-0.0103,-0.0015,-0.2964,-0.1826,-1.4438,0.4703,0.0044,-0.0083,-0.8825,0
13230763,1.0000,0.0003,-0.0001,-0.0000,-0.0014,-0.0015,0.1616,-0.0808,-0.0889,9.6968,0.0328,-0.0093,-0.0023,-0.2949,-0.1846,-1.4438,0.4704,0.0044,-0.0085,-0.8824,0
13230929,1.0000,0.0003,-0.0001,-0.0000,-0.0011,-0.0017,0.1616,-0.0656,-0.0963,9.6954,0.0347,-0.0097,-0.0020,-0.2939,-0.1860,-1.4448,0.4705,0.0045,-0.0087,-0.8823,0
13231096,1.0000,0.0003,-0.0001,-0.0000,-0.0012,-0.0017,0.1616,-0.0722,-0.0964,9.6949,0.0334,-0.0104,-0.0016,-0.2954,-0.1841,-1.4453,0.4706,0.0045,-0.0088,-0.8823,0
13231263,1.0000,0.0003,-0.0001,-0.0000,-0.0012,-0.0016,0.1614,-0.0706,-0.0903,9.6867,0.0342,-0.0104,-0.0005,-0.2964,-0.1855,-1.4468,0.4707,0.0045,-0.0090,-0.8822,0
13231429,1.0000,0.0003,-0.0001,-0.0000,-0.0013,-0.0019,0.1617,-0.0770,-0.1091,9.6999,0.0333,-0.0102,-0.0011,-0.2974,-0.1841,-1.4429,0.4708,0.0046,-0.0092,-0.8822,0
13231596,1.0000,0.0003,-0.0001,-0.0000,-0.0012,-0.0016,0.1617,-0.0708,-0.0962,9.7014,0.0343,-0.0088,-0.0025,-0.2944,-0.1846,-1.4434,0.4709,0.0046,-0.0093,-0.8821,0
13231763,1.0000,0.0003,-0.0001,-0.0000,-0.0013,-0.0018,0.1615,-0.0796,-0.1050,9.6876,0.0347,-0.0096,-0.0024,-0.2969,-0.1855,-1.4463,0.4710,0.0046,-0.0095,-0.8821,0
13231929,1.0000,0.0003,-0.0001,-0.0000,-0.0013,-0.0018,0.1618,-0.0778,-0.1079,9.7064,0.0323,-0.0095,-0.0008,-0.2969,-0.1851,-1.4453,0.4711,0.0047,-0.0097,-0.8820,0
13232096,1.0000,0.0003,-0.0001,-0.0000,-0.0013,-0.0017,0.1615,-0.0783,-0.0978,9.6907,0.0339,-0.0093,-0.0013,-0.2959,-0.1836,-1.4458,0.4712,0.0047,-0.0098,-0.8820,0
13232263,1.0000,0.0003,-0.0001,-0.0000,-0.0014,-0.0016,0.1613,-0.0860,-0.0949,9.6782,0.0329,-0.0103,-0.0019,-0.2954,-0.1851,-1.4463,0.4713,0.0047,-0.0100,-0.8819,0
13232429,1.0000,0.0003,-0.0001,-0.0000,-0.0015,-0.0018,0.1612,-0.0909,-0.1082,9.6719,0.0337,-0.0096,-0.0007,-0.2974,-0.1851,-1.4438,0.4714,0.0048,-0.0101,-0.8819,0
13232596,1.0000,0.0003,-0.0001,-0.0000,-0.0014,-0.0017,0.1615,-0.0808,-0.1018,9.6902,0.0339,-0.0106,-0.0024,-0.2969,-0.1846,-1.4443,0.4715,0.0048,-0.0103,-0.8818,0
13232763,1.0000,0.0003,-0.0001,-0.0000,-0.0013,-0.0017,0.1616,-0.0771,-0.1016,9.6969,0.0328,-0.0107,-0.0014,-0.2949,-0.1831,-1.4448,0.4716,0.0048,-0.0104,-0.8818,0
13232929,1.0000,0.0003,-0.0001,-0.0000,-0.0012,-0.0018,0.1615,-0.0728,-0.1037,9.6918,0.0344,-0.0100,-0.0010,-0.2954,-0.1831,-1.4443,0.4717,0.0049,-0.0106,-0.8817,0
13233096,1.0000,0.0003,-0.0001,-0.0000,-0.0011,-0.0017,0.1615,-0.0638,-0.0971,9.6926,0.0350,-0.0100,-0.0011,-0.2954,-0.1855,-1.4463,0.4718,0.0049,-0.0108,-0.8817,0
13233263,1.0000,0.0003,-0.0001,-0.0000,-0.0014,-0.0017,0.1614,-0.0807,-0.1014,9.6816,0.0336,-0.0101,-0.0021,-0.2954,-0.1855,-1.4463,0.4718,0.0049,-0.0109,-0.8816,0
13233429,1.0000,0.0003,-0.0001,-0.0000,-0.0011,-0.0015,0.1615,-0.0661,-0.0863,9.6901,0.0343,-0.0099,-0.0012,-0.2983,-0.1851,-1.4443,0.4719,0.0050,-0.0111,-0.8816,0
13233596,1.0000,0.0003,-0.0001,-0.0000,-0.0013,-0.0017,0.1615,-0.0772,-0.0972,9.6912,0.0340,-0.0107,-0.0027,-0.2954,-0.1851,-1.4482,0.4720,0.0050,-0.0112,-0.8815,0
13233763,1.0000,0.0003,-0.0001,-0.0000,-0.0014,-0.0018,0.1613,-0.0831,-0.1045,9.6765,0.0341,-0.0100,-0.0011,-0.2974,-0.1846,-1.4448,0.4721,0.0050,-0.0114,-0.8815,0
13233929,1.0000,0.0003,-0.0001,-0.0000,-0.0015,-0.0018,0.1613,-0.0907,-0.1045,9.6761,0.0339,-0.0092,-0.0004,-0.2935,-0.1826,-1.4463,0.4722,0.0050,-0.0115,-0.8814,0
13234096,1.0000,0.0003,-0.0001,-0.0000,-0.0015,-0.0016,0.1614,-0.0898,-0.0957,9.6861,0.0347,-0.0109,-0.0009,-0.2935,-0.1851,-1.4448,0.4723,0.0051,-0.0116,-0.8814,0
13234263,1.0000,0.0003,-0.0001,-0.0000,-0.0014,-0.0018,0.1611,-0.0811,-0.1030,9.6684,0.0352,-0.0097,-0.0023,-0.2979,-0.1851,-1.4443,0.4724,0.0051,-0.0118,-0.8813,0
13234429,1.0000,0.0003,-0.0001,-0.0000,-0.0013,-0.0016,0.1612,-0.0785,-0.0945,9.6702,0.0348,-0.0107,-0.0021,-0.2969,-0.1841,-1.4463,0.4724,0.0051,-0.0119,-0.8813,0
13234596,1.0000,0.0003,-0.0001,-0.0000,-0.0011,-0.0019,0.1614,-0.0665,-0.1091,9.6859,0.0343,-0.0101,-0.0009,-0.2964,-0.1841,-1.4443,0.4725,0.0052,-0.0121,-0.8812,0
13234763,1.0000,0.0003,-0.0001,-0.0000,-0.0012,-0.0016,0.1614,-0.0713,-0.0928,9.6818,0.0343,-0.0105,-0.0012,-0.2949,-0.1846,-1.4453,0.4726,0.0052,-0.0122,-0.8812,0
13234929,1.0000,0.0003,-0.0001,-0.0000,-0.0011,-0.0018,0.1619,-0.0654,-0.1077,9.7114,0.0322,-0.0100,-0.0012,-0.2959,-0.1860,-1.4448,0.4727,0.0052,-0.0123,-0.8811,0
13235096,1.0000,0.0003,-0.0001,0.0000,-0.0012,-0.0016,0.1615,-0.0698,-0.0953,9.6891,0.0355,-0.0095,0.0006,-0.2969,-0.1851,-1.4448,0.4728,0.0052,-0.0125,-0.8811,0
13235263,1.0000,0.0003,-0.0001,-0.0000,-0.0017,-0.0016,0.1616,-0.1011,-0.0906,9.6935,0.0331,-0.0098,-0.0010,-0.2944,-0.1870,-1.4429,0.4729,0.0053,-0.0126,-0.8810,0
13235429,1.0000,0.0003,-0.0001,-0.0000,-0.0015,-0.0018,0.1614,-0.0915,-0.1033,9.6835,0.0318,-0.0093,-0.0023,-0.2949,-0.1836,-1.4453,0.4730,0.0053,-0.0127,-0.8810,0
13235596,1.0000,0.0003,-0.0001,-0.0000,-0.0016,-0.0017,0.1615,-0.0935,-0.0993,9.6928,0.0337,-0.0087,-0.0005,-0.2949,-0.1836,-1.4438,0.4731,0.0053,-0.0128,-0.8809,0
13235763,1.0000,0.0003,-0.0001,-0.0000,-0.0013,-0.0017,0.1615,-0.0801,-0.0977,9.6874,0.0355,-0.0105,-0.0012,-0.2959,-0.1846,-1.4443,0.4732,0.0054,-0.0130,-0.8809,0
13235929,1.0000,0.0003,-0.0001,-0.0000,-0.0012,-0.0018,0.1612,-0.0714,-0.1051,9.6698,0.0334,-0.0101,-0.0015,-0.2954,-0.1841,-1.4453,0.4732,0.0054,-0.0131,-0.8808,0
13236096,1.0000,0.0003,-0.0001,-0.0000,-0.0010,-0.0017,0.1615,-0.0566,-0.1023,9.6873,0.0329,-0.0111,-0.0012,-0.2954,-0.1855,-1.4453,0.4733,0.0054,-0.0132,-0.8808,0
13236263,1.0000,0.0003,-0.0001,-0.0000,-0.0013,-0.0019,0.1611,-0.0743,-0.1101,9.6683,0.0344,-0.0115,-0.0011,-0.2964,-0.1846,-1.4468,0.4734,0.0054,-0.0133,-0.8807,0
13236429,1.0000,0.0003,-0.0001,-0.0000,-0.0014,-0.0018,0.1614,-0.0815,-0.1062,9.6861,0.0342,-0.0093,-0.0013,-0.2983,-0.1841,-1.4448,0.4735,0.0054,-0.0134,-0.8807,0
13236596,1.0000,0.0003,-0.0001,-0.0000,-0.0015,-0.0016,0.1616,-0.0869,-0.0963,9.6989,0.0331,-0.0109,-0.0014,-0.2954,-0.1846,-1.4438,0.4736,0.0055,-0.0135,-0.8806,0
13236763,1.0000,0.0003,-0.0001,-0.0000,-0.0012,-0.0020,0.1613,-0.0727,-0.1159,9.6792,0.0349,-0.0103,-0.0004,-0.2964,-0.1860,-1.4468,0.4736,0.0055,-0.0136,-0.8806,0
13236929,1.0000,0.0003,-0.0001,-0.0000,-0.0014,-0.0015,0.1617,-0.0843,-0.0896,9.7039,0.0335,-0.0107,-0.0011,-0.2964,-0.1851,-1.4468,0.4737,0.0055,-0.0137,-0.8805,0
13237096,1.0000,0.0003,-0.0001,-0.0000,-0.0015,-0.0017,0.1613,-0.0895,-0.0997,9.6776,0.0336,-0.0100,-0.0021,-0.2974,-0.1851,-1.4453,0.4738,0.0055,-0.0138,-0.8805,0
13237263,1.0000,0.0003,-0.0001,-0.0000,-0.0014,-0.0013,0.1614,-0.0841,-0.0765,9.6828,0.0336,-0.0108,-0.0006,-0.2964,-0.1836,-1.4448,0.4739,0.0055,-0.0139,-0.8805,0
13237429,1.0000,0.0003,-0.0001,-0.0000,-0.0013,-0.0016,0.1616,-0.0776,-0.0931,9.6943,0.0344,-0.0103,-0.0011,-0.2974,-0.1836,-1.4434,0.4740,0.0055,-0.0140,-0.8804,0
13237596,1.0000,0.0003,-0.0001,-0.0000,-0.0014,-0.0019,0.1614,-0.0836,-0.1085,9.6840,0.0339,-0.0080,-0.0008,-0.2939,-0.1855,-1.4458,0.4740,0.0056,-0.0141,-0.8804,0
13237763,1.0000,0.0003,-0.0001,-0.0000,-0.0012,-0.0018,0.1617,-0.0718,-0.1056,9.6997,0.0340,-0.0100,-0.0004,-0.2964,-0.1846,-1.4429,0.4741,0.0056,-0.0142,-0.8803,0
13237930,1.0000,0.0003,-0.0001,-0.0000,-0.0014,-0.0018,0.1614,-0.0833,-0.1030,9.6864,0.0335,-0.0095,-0.0016,-0.2959,-0.1831,-1.4429,0.4743,0.0015,0.0066,-0.8804,0
13238096,1.0000,0.0003,-0.0001,-0.0000,-0.0012,-0.0017,0.1613,-0.0708,-0.1007,9.6801,0.0341,-0.0101,-0.0006,-0.2939,-0.1841,-1.4443,0.4742,0.0015,0.0066,-0.8804,0
13238263,1.0000,0.0003,-0.0001,-0.0000,-0.0012,-0.0018,0.1615,-0.0727,-0.1028,9.6890,0.0339,-0.0095,-0.0010,-0.2983,-0.1831,-1.4443,0.4741,0.0015,0.0066,-0.8805,0
13238430,1.0000,0.0003,-0.0001,-0.0000,-0.0013,-0.0015,0.1614,-0.0749,-0.0904,9.6859,0.0326,-0.0095,-0.0007,-0.2954,-0.1855,-1.4478,0.4740,0.0015,0.0066,-0.8805,0
13238596,1.0000,0.0003,-0.0001,-0.0000,-0.0013,-0.0017,0.1617,-0.0786,-0.1018,9.6991,0.0309,-0.0088,-0.0022,-0.2964,-0.1826,-1.4438,0.4739,0.0015,0.0066,-0.8806,0
13238763,1.0000,0.0003,-0.0001,-0.0000,-0.0013,-0.0017,0.1614,-0.0755,-0.0993,9.6856,0.0347,-0.0109,-0.0023,-0.2969,-0.1846,-1.4453,0.4738,0.0015,0.0066,-0.8806,0
13238930,1.0000,0.0003,-0.0001,-0.0000,-0.0016,-0.0017,0.1608,-0.0928,-0.0982,9.6488,0.0349,-0.0104,-0.0022,-0.2930,-0.1841,-1.4434,0.4737,0.0015,0.0066,-0.8807,0
13239096,1.0000,0.0003,-0.0001,-0.0000,-0.0015,-0.0014,0.1614,-0.0895,-0.0812,9.6828,0.0321,-0.0104,-0.0006,-0.2969,-0.1865,-1.4429,0.4736,0.0015,0.0066,-0.8807,0
13239263,1.0000,0.0003,-0.0001,-0.0000,-0.0017,-0.0016,0.1615,-0.0996,-0.0935,9.6927,0.0345,-0.0091,-0.0016,-0.2939,-0.1855,-1.4463,0.4735,0.0015,0.0066,-0.8808,0
13239430,1.0000,0.0003,-0.0001,-0.0000,-0.0013,-0.0016,0.1616,-0.0769,-0.0932,9.6955,0.0338,-0.0101,-0.0028,-0.2964,-0.1836,-1.4443,0.4734,0.0015,0.0066,-0.8808,0
13239596,1.0000,0.0003,-0.0001,-0.0000,-0.0012,-0.0018,0.1614,-0.0682,-0.1063,9.6811,0.0333,-0.0104,-0.0015,-0.2974,-0.1816,-1.4429,0.4733,0.0015,0.0066,-0.8809,0
13239763,1.0000,0.0003,-0.0001,-0.0000,-0.0011,-0.0016,0.1613,-0.0648,-0.0945,9.6807,0.0334,-0.0098,-0.0006,-0.2964,-0.1855,-1.4438,0.4733,0.0015,0.0066,-0.8809,0
13239930,1.0000,0.0003,-0.0001,-0.0000,-0.0011,-0.0016,0.1615,-0.0648,-0.0912,9.6892,0.0337,-0.0099,-0.0005,-0.2974,-0.1851,-1.4453,0.4732,0.0015,0.0066,-0.8809,0
13240096,1.0000,0.0003,-0.0001,-0.0000,-0.0010,-0.0016,0.1616,-0.0604,-0.0955,9.6936,0.0339,-0.0099,-0.0015,-0.2944,-0.1860,-1.4463,0.4731,0.0015,0.0066,-0.8810,0
13240263,1.0000,0.0003,-0.0001,-0.0000,-0.0013,-0.0017,0.1616,-0.0780,-0.0982,9.6966,0.0333,-0.0094,-0.0012,-0.2979,-0.1855,-1.4463,0.4730,0.0015,0.0066,-0.8810,0
13240430,1.0000,0.0003,-0.0001,-0.0000,-0.0013,-0.0014,0.1613,-0.0759,-0.0833,9.6766,0.0336,-0.0103,-0.0018,-0.2935,-0.1851,-1.4448,0.4729,0.0015,0.0066,-0.8811,0
13240596,1.0000,0.0003,-0.0001,-0.0000,-0.0014,-0.0018,0.1616,-0.0810,-0.1075,9.6984,0.0330,-0.0106,-0.0010,-0.2974,-0.1836,-1.4448,0.4728,0.0015,0.0066,-0.8811,0
13240763,1.0000,0.0003,-0.0001,-0.0000,-0.0013,-0.0017,0.1612,-0.0762,-0.1023,9.6727,0.0336,-0.0103,-0.0016,-0.2969,-0.1865,-1.4468,0.4727,0.0015,0.0066,-0.8812,0
13240930,1.0000,0.0003,-0.0001,-0.0000,-0.0016,-0.0016,0.1615,-0.0961,-0.0908,9.6930,0.0330,-0.0102,-0.0017,-0.2954,-0.1826,-1.4448,0.4726,0.0015,0.0066,-0.8812,0
13241096,1.0000,0.0003,-0.0001,-0.0000,-0.0016,-0.0015,0.1614,-0.0957,-0.0845,9.6810,0.0345,-0.0097,-0.0026,-0.2949,-0.1865,-1.4463,0.4726,0.0015,0.0066,-0.8813,0
13241263,1.0000,0.0003,-0.0001,-0.0000,-0.0015,-0.0017,0.1617,-0.0871,-0.0991,9.7037,0.0343,-0.0108,-0.0010,-0.2974,-0.1841,-1.4458,0.4725,0.0015,0.0066,-0.8813,0
13241430,1.0000,0.0003,-0.0001,-0.0000,-0.0013,-0.0018,0.1618,-0.0788,-0.1062,9.7083,0.0323,-0.0112,-0.0004,-0.2964,-0.1836,-1.4448,0.4724,0.0014,0.0066,-0.8814,0
13241596,1.0000,0.0003,-0.0001,-0.0000,-0.0014,-0.0017,0.1612,-0.0863,-0.0985,9.6716,0.0324,-0.0088,-0.0009,-0.2974,-0.1855,-1.4468,0.4723,0.0015,0.0066,-0.8814,0
13241763,1.0000,0.0003,-0.0001,-0.0000,-0.0012,-0.0018,0.1618,-0.0719,-0.1027,9.7107,0.0348,-0.0098,-0.0014,-0.2969,-0.1855,-1.4468,0.4723,0.0015,0.0066,-0.8814,0
13241930,1.0000,0.0003,-0.0001,-0.0000,-0.0013,-0.0019,0.1613,-0.0774,-0.1116,9.6800,0.0342,-0.0104,-0.0016,-0.2954,-0.1841,-1.4453,0.4722,0.0015,0.0066,-0.8815,0
13242096,1.0000,0.0003,-0.0001,-0.0000,-0.0015,-0.0017,0.1613,-0.0886,-0.1007,9.6772,0.0362,-0.0108,-0.0033,-0.2959,-0.1860,-1.4473,0.4721,0.0015,0.0066,-0.8815,0
13242263,1.0000,0.0003,-0.0001,-0.0000,-0.0014,-0.0014,0.1614,-0.0812,-0.0825,9.6844,0.0338,-0.0103,-0.0011,-0.2969,-0.1836,-1.4458,0.4720,0.0015,0.0066,-0.8815,0
13242430,1.0000,0.0003,-0.0001,-0.0000,-0.0014,-0.0017,0.1613,-0.0816,-0.0982,9.6752,0.0322,-0.0093,-0.0014,-0.2954,-0.1841,-1.4463,0.4720,0.0015,0.0066,-0.8816,0
13242596,1.0000,0.0003,-0.0001,-0.0000,-0.0013,-0.0018,0.1616,-0.0768,-0.1048,9.6982,0.0321,-0.0097,-0.0007,-0.2959,-0.1846,-1.4448,0.4719,0.0014,0.0066,-0.8816,0
13242763,1.0000,0.0003,-0.0001,-0.0000,-0.0012,-0.0018,0.1614,-0.0726,-0.1041,9.6867,0.0340,-0.0110,-0.0010,-0.2964,-0.1826,-1.4482,0.4718,0.0014,0.0066,-0.8817,0
13242930,1.0000,0.0003,-0.0001,-0.0000,-0.0009,-0.0016,0.1612,-0.0558,-0.0910,9.6692,0.0325,-0.0098,-0.0025,-0.2983,-0.1860,-1.4453,0.4718,0.0014,0.0066,-0.8817,0
13243096,1.0000,0.0003,-0.0001,-0.0000,-0.0012,-0.0018,0.1615,-0.0738,-0.1050,9.6925,0.0325,-0.0090,-0.0018,-0.2969,-0.1846,-1.4463,0.4717,0.0014,0.0066,-0.8817,0
13243263,1.0000,0.0003,-0.0001,-0.0000,-0.0012,-0.0018,0.1617,-0.0730,-0.1044,9.7004,0.0349,-0.0107,-0.0010,-0.2964,-0.1836,-1.4453,0.4716,0.0014,0.0066,-0.8818,0
13243430,1.0000,0.0003,-0.0001,-0.0000,-0.0013,-0.0018,0.1608,-0.0770,-0.1049,9.6506,0.0350,-0.0110,-0.0005,-0.2959,-0.1846,-1.4453,0.4716,0.0014,0.0066,-0.8818,0
13243596,1.0000,0.0003,-0.0001,-0.0000,-0.0013,-0.0015,0.1611,-0.0751,-0.0854,9.6650,0.0323,-0.0096,-0.0024,-0.2964,-0.1865,-1.4448,0.4715,0.0014,0.0066,-0.8818,0
13243763,1.0000,0.0003,-0.0001,-0.0000,-0.0020,-0.0013,0.1617,-0.1166,-0.0784,9.6991,0.0311,-0.0088,-0.0018,-0.2954,-0.1846,-1.4429,0.4714,0.0014,0.0066,-0.8819,0
13243930,1.0000,0.0003,-0.0001,-0.0000,-0.0020,-0.0016,0.1618,-0.1221,-0.0936,9.7076,0.0333,-0.0112,-0.0015,-0.2944,-0.1836,-1.4419,0.4714,0.0014,0.0066,-0.8819,0
13244096,1.0000,0.0003,-0.0001,-0.0000,-0.0018,-0.0012,0.1616,-0.1052,-0.0718,9.6939,0.0342,-0.0106,-0.0016,-0.2959,-0.1846,-1.4453,0.4713,0.0014,0.0066,-0.8819,0
13244263,1.0000,0.0003,-0.0001,-0.0000,-0.0012,-0.0018,0.1615,-0.0724,-0.1024,9.6890,0.0352,-0.0101,-0.0022,-0.2959,-0.1831,-1.4438,0.4712,0.0014,0.0066,-0.8820,0
13244430,1.0000,0.0003,-0.0001,-0.0000,-0.0006,-0.0019,0.1612,-0.0372,-0.1118,9.6739,0.0342,-0.0100,-0.0017,-0.2969,-0.1841,-1.4438,0.4712,0.0014,0.0066,-0.8820,0
13244596,1.0000,0.0003,-0.0001,-0.0000,-0.0008,-0.0022,0.1619,-0.0455,-0.1305,9.7114,0.0338,-0.0103,-0.0017,-0.2949,-0.1841,-1.4434,0.4711,0.0014,0.0066,-0.8820,0
13244763,1.0000,0.0003,-0.0001,-0.0000,-0.0008,-0.0020,0.1619,-0.0467,-0.1149,9.7125,0.0342,-0.0096,-0.0020,-0.2949,-0.1855,-1.4434,0.4711,0.0014,0.0066,-0.8821,0
13244930,1.0000,0.0003,-0.0001,-0.0000,-0.0010,-0.0017,0.1615,-0.0584,-0.1002,9.6918,0.0343,-0.0113,-0.0010,-0.2944,-0.1865,-1.4453,0.4710,0.0014,0.0066,-0.8821,0
13245096,1.0000,0.0003,-0.0001,-0.0000,-0.0013,-0.0015,0.1614,-0.0789,-0.0875,9.6817,0.0342,-0.0102,-0.0026,-0.2959,-0.1826,-1.4458,0.4709,0.0014,0.0066,-0.8821,0
13245263,1.0000,0.0003,-0.0001,-0.0000,-0.0016,-0.0016,0.1615,-0.0963,-0.0915,9.6896,0.0334,-0.0101,-0.0013,-0.2944,-0.1841,-1.4458,0.4709,0.0014,0.0066,-0.8822,0
13245430,1.0000,0.0003,-0.0001,-0.0000,-0.0019,-0.0016,0.1618,-0.1142,-0.0907,9.7109,0.0330,-0.0096,-0.0028,-0.2969,-0.1846,-1.4438,0.4708,0.0014,0.0066,-0.8822,0
13245596,1.0000,0.0003,-0.0001,-0.0000,-0.0022,-0.0015,0.1614,-0.1289,-0.0878,9.6868,0.0324,-0.0095,-0.0011,-0.2964,-0.1841,-1.4458,0.4708,0.0014,0.0066,-0.8822,0
13245763,1.0000,0.0003,-0.0001,-0.0000,-0.0018,-0.0017,0.1614,-0.1046,-0.0965,9.6829,0.0331,-0.0092,-0.0001,-0.2964,-0.1841,-1.4453,0.4707,0.0014,0.0066,-0.8823,0
13245930,1.0000,0.0003,-0.0001,-0.0000,-0.0015,-0.0016,0.1616,-0.0879,-0.0925,9.6965,0.0342,-0.0110,-0.0012,-0.2944,-0.1851,-1.4448,0.4707,0.0014,0.0066,-0.8823,0
13246096,1.0000,0.0003,-0.0001,-0.0000,-0.0010,-0.0018,0.1611,-0.0596,-0.1075,9.6638,0.0336,-0.0107,-0.0026,-0.2959,-0.1846,-1.4463,0.4706,0.0014,0.0066,-0.8823,0
13246263,1.0000,0.0003,-0.0001,-0.0000,-0.0007,-0.0017,0.1615,-0.0398,-0.0995,9.6879,0.0351,-0.0106,-0.0016,-0.2949,-0.1836,-1.4438,0.4705,0.0014,0.0066,-0.8824,0
13246430,1.0000,0.0003,-0.0001,-0.0000,-0.0006,-0.0019,0.1615,-0.0334,-0.1113,9.6895,0.0333,-0.0109,-0.0004,-0.2979,-0.1836,-1.4458,0.4705,0.0014,0.0066,-0.8824,0
13246596,1.0000,0.0003,-0.0001,-0.0000,-0.0007,-0.0019,0.1615,-0.0426,-0.1093,9.6930,0.0338,-0.0100,-0.0024,-0.2969,-0.1836,-1.4463,0.4705,0.0014,0.0066,-0.8824,0
13246763,1.0000,0.0003,-0.0001,-0.0000,-0.0010,-0.0019,0.1613,-0.0597,-0.1092,9.6767,0.0343,-0.0097,-0.0011,-0.2935,-0.1855,-1.4463,0.4704,0.0014,0.0066,-0.8824,0
13246930,1.0000,0.0003,-0.0001,-0.0000,-0.0015,-0.0017,0.1616,-0.0869,-0.1002,9.6947,0.0340,-0.0101,-0.0011,-0.2954,-0.1860,-1.4438,0.4703,0.0014,0.0066,-0.8825,0
13247096,1.0000,0.0003,-0.0001,-0.0000,-0.0020,-0.0015,0.1614,-0.1214,-0.0889,9.6824,0.0323,-0.0097,-0.0021,-0.2944,-0.1841,-1.4468,0.4703,0.0014,0.0066,-0.8825,0
13247263,1.0000,0.0003,-0.0001,-0.0000,-0.0019,-0.0016,0.1617,-0.1119,-0.0908,9.7022,0.0342,-0.0106,-0.0009,-0.2979,-0.1831,-1.4448,0.4702,0.0014,0.0066,-0.8825,0
13247430,1.0000,0.0003,-0.0001,-0.0000,-0.0018,-0.0015,0.1616,-0.1068,-0.0860,9.6940,0.0343,-0.0103,-0.0015,-0.2964,-0.1841,-1.4453,0.4702,0.0014,0.0066,-0.8825,0
13247596,1.0000,0.0003,-0.0001,-0.0000,-0.0017,-0.0014,0.1611,-0.1014,-0.0833,9.6666,0.0341,-0.0091,-0.0012,-0.2949,-0.1855,-1.4429,0.4702,0.0014,0.0066,-0.8826,0
13247763,1.0000,0.0003,-0.0001,-0.0000,-0.0013,-0.0019,0.1617,-0.0776,-0.1126,9.7027,0.0349,-0.0101,-0.0018,-0.2939,-0.1855,-1.4463,0.4701,0.0014,0.0066,-0.8826,0
13247930,1.0000,0.0003,-0.0001,-0.0000,-0.0009,-0.0019,0.1617,-0.0559,-0.1125,9.7018,0.0340,-0.0094,-0.0010,-0.2954,-0.1865,-1.4463,0.4700,0.0014,0.0066,-0.8826,0
13248096,1.0000,0.0003,-0.0001,-0.0000,-0.0009,-0.0019,0.1614,-0.0502,-0.1096,9.6855,0.0342,-0.0103,-0.0015,-0.2954,-0.1841,-1.4443,0.4700,0.0014,0.0066,-0.8827,0
13248263,1.0000,0.0003,-0.0001,-0.0000,-0.0008,-0.0019,0.1616,-0.0464,-0.1120,9.6982,0.0331,-0.0096,-0.0015,-0.2979,-0.1860,-1.4434,0.4699,0.0014,0.0066,-0.8827,0
13248430,1.0000,0.0003,-0.0001,-0.0000,-0.0014,-0.0017,0.1616,-0.0807,-0.0971,9.6938,0.0343,-0.0092,-0.0018,-0.2969,-0.1865,-1.4458,0.4699,0.0014,0.0066,-0.8827,0
13248596,1.0000,0.0003,-0.0001,-0.0000,-0.0014,-0.0016,0.1616,-0.0820,-0.0953,9.6934,0.0345,-0.0093,-0.0008,-0.2983,-0.1851,-1.4448,0.4698,0.0014,0.0066,-0.8827,0
13248763,1.0000,0.0003,-0.0001,-0.0000,-0.0017,-0.0015,0.1616,-0.0988,-0.0871,9.6938,0.0338,-0.0099,-0.0015,-0.2969,-0.1851,-1.4463,0.4698,0.0014,0.0066,-0.8828,0
13248930,1.0000,0.0003,-0.0001,-0.0000,-0.0018,-0.0015,0.1613,-0.1095,-0.0846,9.6752,0.0341,-0.0111,-0.0019,-0.2959,-0.1846,-1.4448,0.4697,0.0014,0.0066,-0.8828,0
13249096,1.0000,0.0003,-0.0001,-0.0000,-0.0017,-0.0015,0.1618,-0.0994,-0.0867,9.7081,0.0330,-0.0109,-0.0035,-0.2949,-0.1860,-1.4458,0.4697,0.0014,0.0066,-0.8828,0
13249263,1.0000,0.0003,-0.0001,-0.0000,-0.0017,-0.0016,0.1613,-0.0995,-0.0936,9.6800,0.0325,-0.0095,-0.0017,-0.2974,-0.1855,-1.4468,0.4696,0.0014,0.0066,-0.8828,0
13249430,1.0000,0.0003,-0.0001,-0.0000,-0.0013,-0.0019,0.1617,-0.0779,-0.1115,9.7031,0.0339,-0.0100,-0.0009,-0.2954,-0.1851,-1.4434,0.4696,0.0014,0.0066,-0.8829,0
13249596,1.0000,0.0003,-0.0001,-0.0000,-0.0011,-0.0018,0.1615,-0.0657,-0.1030,9.6887,0.0331,-0.0107,-0.0014,-0.2959,-0.1851,-1.4424,0.4695,0.0014,0.0066,-0.8829,0
13249763,1.0000,0.0003,-0.0001,-0.0000,-0.0009,-0.0017,0.1614,-0.0559,-0.0997,9.6851,0.0341,-0.0098,-0.0023,-0.2969,-0.1865,-1.4434,0.4695,0.0014,0.0066,-0.8829,0
13249930,1.0000,0.0003,-0.0001,-0.0000,-0.0008,-0.0018,0.1615,-0.0468,-0.1067,9.6890,0.0334,-0.0100,-0.0021,-0.2954,-0.1841,-1.4443,0.4694,0.0014,0.0066,-0.8829,0
13250096,1.0000,0.0003,-0.0001,-0.0000,-0.0010,-0.0018,0.1615,-0.0562,-0.1061,9.6881,0.0330,-0.0104,-0.0020,-0.2964,-0.1826,-1.4468,0.4694,0.0014,0.0066,-0.8830,0
13250263,1.0000,0.0003,-0.0001,-0.0000,-0.0013,-0.0017,0.1617,-0.0797,-0.1021,9.7030,0.0336,-0.0094,-0.0008,-0.2964,-0.1821,-1.4458,0.4694,0.0014,0.0066,-0.8830,0
13250430,1.0000,0.0003,-0.0001,-0.0000,-0.0016,-0.0014,0.1614,-0.0936,-0.0814,9.6834,0.0338,-0.0094,-0.0015,-0.2954,-0.1860,-1.4468,0.4693,0.0014,0.0066,-0.8830,0
13250596,1.0000,0.0003,-0.0001,-0.0000,-0.0015,-0.0016,0.1615,-0.0918,-0.0930,9.6872,0.0334,-0.0104,-0.0008,-0.2944,-0.1836,-1.4448,0.4693,0.0014,0.0066,-0.8830,0
13250763,1.0000,0.0003,-0.0001,-0.0000,-0.0016,-0.0017,0.1615,-0.0945,-0.1020,9.6918,0.0326,-0.0100,-0.0019,-0.2954,-0.1816,-1.4443,0.4692,0.0014,0.0066,-0.8830,0
13250930,1.0000,0.0003,-0.0001,-0.0000,-0.0012,-0.0014,0.1615,-0.0739,-0.0795,9.6874,0.0336,-0.0098,-0.0008,-0.2954,-0.1846,-1.4458,0.4692,0.0014,0.0066,-0.8831,0
13251096,1.0000,0.0003,-0.0001,-0.0000,-0.0013,-0.0017,0.1614,-0.0769,-0.0976,9.6829,0.0341,-0.0106,-0.0002,-0.2949,-0.1841,-1.4478,0.4692,0.0013,0.0066,-0.8831,0
13251263,1.0000,0.0003,-0.0001,-0.0000,-0.0011,-0.0016,0.1616,-0.0630,-0.0944,9.6948,0.0342,-0.0100,-0.0006,-0.2959,-0.1860,-1.4438,0.4691,0.0013,0.0066,-0.8831,0
13251430,1.0000,0.0003,-0.0001,-0.0000,-0.0013,-0.0016,0.1615,-0.0771,-0.0945,9.6878,0.0331,-0.0105,-0.0008,-0.2954,-0.1836,-1.4448,0.4691,0.0013,0.0066,-0.8831,0
13251596,1.0000,0.0003,-0.0001,-0.0000,-0.0010,-0.0018,0.1614,-0.0572,-0.1048,9.6862,0.0337,-0.0091,-0.0027,-0.2959,-0.1846,-1.4424,0.4691,0.0013,0.0066,-0.8831,0
13251763,1.0000,0.0003,-0.0001,-0.0000,-0.0013,-0.0018,0.1618,-0.0759,-0.1046,9.7061,0.0338,-0.0116,-0.0013,-0.2993,-0.1841,-1.4443,0.4690,0.0013,0.0066,-0.8832,0
13251930,1.0000,0.0003,-0.0001,-0.0000,-0.0014,-0.0017,0.1613,-0.0852,-0.0977,9.6796,0.0335,-0.0098,-0.0006,-0.2944,-0.1880,-1.4448,0.4690,0.0013,0.0066,-0.8832,0
13252096,1.0000,0.0003,-0.0001,-0.0000,-0.0015,-0.0017,0.1613,-0.0865,-0.0963,9.6765,0.0341,-0.0094,-0.0010,-0.2959,-0.1851,-1.4448,0.4689,0.0013,0.0066,-0.8832,0
13252263,1.0000,0.0003,-0.0001,-0.0000,-0.0016,-0.0015,0.1617,-0.0932,-0.0890,9.6997,0.0343,-0.0105,-0.0009,-0.2969,-0.1851,-1.4463,0.4689,0.0013,0.0066,-0.8832,0
13252430,1.0000,0.0003,-0.0001,-0.0000,-0.0015,-0.0015,0.1615,-0.0882,-0.0900,9.6903,0.0359,-0.0103,-0.0014,-0.2974,-0.1851,-1.4443,0.4689,0.0013,0.0066,-0.8832,0
13252596,1.0000,0.0003,-0.0001,-0.0000,-0.0015,-0.0017,0.1614,-0.0877,-0.0964,9.6817,0.0346,-0.0110,-0.0025,-0.2964,-0.1855,-1.4443,0.4688,0.0013,0.0066,-0.8833,0
13252763,1.0000,0.0003,-0.0001,-0.0000,-0.0015,-0.0018,0.1615,-0.0893,-0.1028,9.6907,0.0336,-0.0101,-0.0022,-0.2949,-0.1855,-1.4443,0.4688,0.0013,0.0066,-0.8833,0
13252930,1.0000,0.0003,-0.0001,-0.0000,-0.0008,-0.0018,0.1614,-0.0493,-0.1061,9.6840,0.0342,-0.0112,-0.0003,-0.2954,-0.1841,-1.4443,0.4688,0.0013,0.0066,-0.8833,0
13253096,1.0000,0.0003,-0.0001,-0.0000,-0.0011,-0.0018,0.1613,-0.0671,-0.1033,9.6786,0.0337,-0.0092,-0.0010,-0.2944,-0.1855,-1.4458,0.4687,0.0013,0.0066,-0.8833,0
13253263,1.0000,0.0003,-0.0001,-0.0000,-0.0010,-0.0018,0.1617,-0.0564,-0.1080,9.7017,0.0329,-0.0097,-0.0025,-0.2974,-0.1846,-1.4453,0.4687,0.0013,0.0066,-0.8833,0
13253430,1.0000,0.0003,-0.0001,-0.0000,-0.0011,-0.0018,0.1613,-0.0667,-0.1038,9.6765,0.0351,-0.0104,-0.0013,-0.2959,-0.1841,-1.4463,0.4686,0.0013,0.0066,-0.8834,0
13253596,1.0000,0.0003,-0.0001,0.0000,-0.0012,-0.0018,0.1612,-0.0734,-0.1053,9.6722,0.0333,-0.0106,0.0005,-0.2979,-0.1821,-1.4419,0.4686,0.0013,0.0066,-0.8834,0
13253763,1.0000,0.0003,-0.0001,-0.0000,-0.0016,-0.0016,0.1615,-0.0949,-0.0922,9.6916,0.0332,-0.0103,-0.0012,-0.2959,-0.1851,-1.4438,0.4686,0.0013,0.0066,-0.8834,0
13253930,1.0000,0.0003,-0.0001,-0.0000,-0.0017,-0.0013,0.1615,-0.1005,-0.0739,9.6922,0.0335,-0.0102,-0.0028,-0.2954,-0.1851,-1.4453,0.4685,0.0013,0.0066,-0.8834,0
13254096,1.0000,0.0003,-0.0001,-0.0000,-0.0017,-0.0015,0.1615,-0.1016,-0.0900,9.6903,0.0329,-0.0113,-0.0026,-0.2974,-0.1831,-1.4453,0.4685,0.0013,0.0066,-0.8834,0
13254263,1.0000,0.0003,-0.0001,-0.0000,-0.0016,-0.0016,0.1616,-0.0968,-0.0940,9.6970,0.0335,-0.0101,-0.0018,-0.2959,-0.1846,-1.4453,0.4685,0.0013,0.0066,-0.8835,0
13254430,1.0000,0.0003,-0.0001,-0.0000,-0.0012,-0.0017,0.1616,-0.0714,-0.0986,9.6965,0.0340,-0.0094,-0.0004,-0.2939,-0.1851,-1.4458,0.4684,0.0013,0.0066,-0.8835,0
13254597,1.0000,0.0003,-0.0001,-0.0000,-0.0011,-0.0018,0.1615,-0.0674,-0.1045,9.6877,0.0317,-0.0099,-0.0028,-0.2969,-0.1841,-1.4453,0.4684,0.0013,0.0066,-0.8835,0
13254763,1.0000,0.0003,-0.0001,-0.0000,-0.0012,-0.0019,0.1617,-0.0725,-0.1084,9.7031,0.0339,-0.0102,-0.0015,-0.2954,-0.1855,-1.4453,0.4684,0.0013,0.0066,-0.8835,0
13254930,1.0000,0.0003,-0.0001,-0.0000,-0.0011,-0.0016,0.1617,-0.0662,-0.0943,9.7047,0.0352,-0.0107,-0.0015,-0.2959,-0.1841,-1.4463,0.4683,0.0013,0.0066,-0.8835,0
13255097,1.0000,0.0003,-0.0001,-0.0000,-0.0012,-0.0017,0.1614,-0.0699,-0.0979,9.6839,0.0334,-0.0096,-0.0024,-0.2954,-0.1846,-1.4434,0.4683,0.0013,0.0066,-0.8835,0
13255263,1.0000,0.0003,-0.0001,-0.0000,-0.0011,-0.0016,0.1614,-0.0665,-0.0943,9.6841,0.0335,-0.0097,-0.0003,-0.2974,-0.1826,-1.4424,0.4683,0.0013,0.0066,-0.8836,0
13255430,1.0000,0.0003,-0.0001,-0.0000,-0.0016,-0.0017,0.1613,-0.0964,-0.1024,9.6751,0.0327,-0.0100,-0.0019,-0.2959,-0.1836,-1.4468,0.4682,0.0013,0.0066,-0.8836,0
13255597,1.0000,0.0003,-0.0001,-0.0000,-0.0016,-0.0018,0.1615,-0.0941,-0.1051,9.6910,0.0335,-0.0101,-0.0026,-0.2974,-0.1846,-1.4429,0.4682,0.0013,0.0066,-0.8836,0
13255763,1.0000,0.0003,-0.0001,-0.0000,-0.0016,-0.0019,0.1615,-0.0945,-0.1084,9.6876,0.0346,-0.0092,-0.0013,-0.2969,-0.1875,-1.4448,0.4682,0.0013,0.0066,-0.8836,0
13255930,1.0000,0.0003,-0.0001,-0.0000,-0.0015,-0.0017,0.1611,-0.0873,-0.1017,9.6679,0.0336,-0.0101,-0.0019,-0.2969,-0.1841,-1.4424,0.4681,0.0013,0.0066,-0.8836,0
13256097,1.0000,0.0003,-0.0001,-0.0000,-0.0015,-0.0017,0.1614,-0.0905,-0.1010,9.6826,0.0323,-0.0106,-0.0013,-0.2944,-0.1851,-1.4434,0.4681,0.0013,0.0066,-0.8836,0
13256263,1.0000,0.0003,-0.0001,-0.0000,-0.0013,-0.0019,0.1619,-0.0786,-0.1120,9.7131,0.0331,-0.0092,-0.0016,-0.2959,-0.1851,-1.4448,0.4681,0.0013,0.0066,-0.8837,0
13256430,1.0000,0.0003,-0.0001,-0.0000,-0.0012,-0.0014,0.1616,-0.0695,-0.0811,9.6966,0.0332,-0.0094,-0.0022,-0.2964,-0.1855,-1.4448,0.4680,0.0013,0.0066,-0.8837,0
13256597,1.0000,0.0003,-0.0001,-0.0000,-0.0013,-0.0017,0.1615,-0.0793,-0.1009,9.6875,0.0340,-0.0096,-0.0005,-0.2969,-0.1860,-1.4434,0.4680,0.0013,0.0066,-0.8837,0
13256763,1.0000,0.0003,-0.0001,-0.0000,-0.0013,-0.0019,0.1615,-0.0757,-0.1088,9.6911,0.0341,-0.0102,-0.0012,-0.2949,-0.1826,-1.4458,0.4680,0.0013,0.0066,-0.8837,0
13256930,1.0000,0.0003,-0.0001,-0.0000,-0.0013,-0.0016,0.1612,-0.0793,-0.0959,9.6710,0.0340,-0.0111,-0.0005,-0.2949,-0.1836,-1.4434,0.4679,0.0013,0.0066,-0.8837,0
13257097,1.0000,0.0003,-0.0001,-0.0000,-0.0013,-0.0015,0.1615,-0.0789,-0.0863,9.6872,0.0348,-0.0097,-0.0008,-0.2979,-0.1841,-1.4463,0.4679,0.0013,0.0066,-0.8837,0
13257263,1.0000,0.0003,-0.0001,-0.0000,-0.0016,-0.0016,0.1617,-0.0949,-0.0962,9.7039,0.0342,-0.0097,-0.0009,-0.2944,-0.1846,-1.4448,0.4679,0.0013,0.0066,-0.8838,0
13257430,1.0000,0.0003,-0.0001,-0.0000,-0.0015,-0.0018,0.1612,-0.0899,-0.1029,9.6749,0.0337,-0.0099,-0.0017,-0.2964,-0.1841,-1.4424,0.4679,0.0013,0.0066,-0.8838,0
13257597,1.0000,0.0003,-0.0001,-0.0000,-0.0010,-0.0018,0.1615,-0.0612,-0.1058,9.6871,0.0333,-0.0098,-0.0022,-0.2959,-0.1841,-1.4438,0.4678,0.0013,0.0066,-0.8838,0
13257763,1.0000,0.0003,-0.0001,-0.0000,-0.0013,-0.0016,0.1614,-0.0771,-0.0924,9.6858,0.0340,-0.0100,-0.0017,-0.2959,-0.1846,-1.4434,0.4678,0.0013,0.0066,-0.8838,0
13257930,1.0000,0.0003,-0.0001,-0.0000,-0.0014,-0.0017,0.1616,-0.0807,-0.1008,9.6935,0.0336,-0.0092,-0.0010,-0.2959,-0.1846,-1.4453,0.4679,0.0014,0.0066,-0.8837,0
13258097,1.0000,0.0003,-0.0001,-0.0000,-0.0014,-0.0018,0.1616,-0.0854,-0.1058,9.6981,0.0337,-0.0099,-0.0019,-0.2964,-0.1841,-1.4438,0.4679,0.0014,0.0066,-0.8838,0
13258263,1.0000,0.0003,-0.0001,-0.0000,-0.0015,-0.0017,0.1615,-0.0895,-0.0977,9.6915,0.0335,-0.0099,-0.0024,-0.2954,-0.1860,-1.4463,0.4679,0.0014,0.0066,-0.8838,0
13258430,1.0000,0.0003,-0.0001,-0.0000,-0.0014,-0.0017,0.1614,-0.0826,-0.1002,9.6869,0.0341,-0.0101,-0.0006,-0.2949,-0.1836,-1.4429,0.4678,0.0014,0.0066,-0.8838,0
13258597,1.0000,0.0003,-0.0001,-0.0000,-0.0015,-0.0017,0.1618,-0.0894,-0.0983,9.7073,0.0357,-0.0086,-0.0009,-0.2979,-0.1826,-1.4429,0.4678,0.0014,0.0065,-0.8838,0
13258763,1.0000,0.0003,-0.0001,-0.0000,-0.0015,-0.0015,0.1616,-0.0876,-0.0900,9.6931,0.0342,-0.0095,-0.0008,-0.2954,-0.1860,-1.4424,0.4678,0.0014,0.0065,-0.8838,0
13258930,1.0000,0.0003,-0.0001,-0.0000,-0.0014,-0.0015,0.1613,-0.0849,-0.0883,9.6788,0.0347,-0.0088,-0.0015,-0.2979,-0.1855,-1.4458,0.4678,0.0014,0.0065,-0.8838,0
13259097,1.0000,0.0003,-0.0001,-0.0000,-0.0014,-0.0017,0.1615,-0.0819,-0.1016,9.6898,0.0334,-0.0108,-0.0015,-0.2983,-0.1860,-1.4434,0.4677,0.0014,0.0065,-0.8838,0
13259263,1.0000,0.0003,-0.0001,-0.0000,-0.0012,-0.0018,0.1615,-0.0719,-0.1079,9.6912,0.0344,-0.0091,-0.0026,-0.2959,-0.1851,-1.4424,0.4677,0.0014,0.0065,-0.8839,0
13259430,1.0000,0.0003,-0.0001,-0.0000,-0.0011,-0.0016,0.1618,-0.0680,-0.0921,9.7054,0.0338,-0.0097,-0.0011,-0.2949,-0.1841,-1.4424,0.4677,0.0014,0.0065,-0.8839,0
13259597,1.0000,0.0003,-0.0001,-0.0000,-0.0012,-0.0016,0.1614,-0.0699,-0.0957,9.6866,0.0349,-0.0102,-0.0025,-0.2944,-0.1826,-1.4448,0.4677,0.0014,0.0065,-0.8839,0
13259763,1.0000,0.0003,-0.0001,-0.0000,-0.0011,-0.0018,0.1615,-0.0673,-0.1037,9.6885,0.0337,-0.0097,-0.0016,-0.2964,-0.1846,-1.4448,0.4676,0.0014,0.0065,-0.8839,0
13259930,1.0000,0.0003,-0.0001,-0.0000,-0.0014,-0.0018,0.1614,-0.0850,-0.1056,9.6849,0.0322,-0.0107,-0.0006,-0.2944,-0.1841,-1.4443,0.4676,0.0014,0.0065,-0.8839,0
13260097,1.0000,0.0003,-0.0001,-0.0000,-0.0012,-0.0015,0.1615,-0.0711,-0.0862,9.6917,0.0340,-0.0113,-0.0014,-0.2974,-0.1855,-1.4438,0.4676,0.0014,0.0065,-0.8839,0
13260263,1.0000,0.0003,-0.0001,-0.0000,-0.0013,-0.0016,0.1616,-0.0755,-0.0948,9.6977,0.0330,-0.0100,-0.0018,-0.2959,-0.1855,-1.4473,0.4676,0.0014,0.0065,-0.8839,0
13260430,1.0000,0.0003,-0.0001,-0.0000,-0.0014,-0.0018,0.1616,-0.0821,-0.1065,9.6960,0.0327,-0.0103,-0.0009,-0.2959,-0.1831,-1.4419,0.4675,0.0014,0.0066,-0.8839,0
13260597,1.0000,0.0003,-0.0001,-0.0000,-0.0013,-0.0016,0.1613,-0.0766,-0.0915,9.6806,0.0313,-0.0106,-0.0028,-0.2954,-0.1841,-1.4443,0.4675,0.0014,0.0066,-0.8840,0
13260763,1.0000,0.0003,-0.0001,-0.0000,-0.0012,-0.0015,0.1615,-0.0737,-0.0852,9.6878,0.0336,-0.0103,-0.0017,-0.2974,-0.1841,-1.4404,0.4675,0.0014,0.0066,-0.8840,0
13260930
13261097
13261263
